{
  "title": "Hello",
  "subTitle.howAreYouDoingToday": "How are you feeling today?",
  "symptomSelfCheckup": "Symptom Self-Checkup",
  "symptomSelfCheckup.checkUpDone": "You already checked your physical state today!",
  "symptomSelfCheckup.checkUpNeeded": "Check your physical state in 20 seconds",
  "totalPeopleFine": "of the people using this app are doing fine! Together we can beat this!",
  "subTitle.latestInformations": "Latest Informations",
  "installApp.title": "Install the App",
  "installApp.text": "Install the App for better usability!"
}
